<?xml version="1.0" encoding="UTF-8" standalone="no"?>
<!-- Created with Inkscape (http://www.inkscape.org/) -->
<svg
   xmlns:dc="http://purl.org/dc/elements/1.1/"
   xmlns:cc="http://creativecommons.org/ns#"
   xmlns:rdf="http://www.w3.org/1999/02/22-rdf-syntax-ns#"
   xmlns:svg="http://www.w3.org/2000/svg"
   xmlns="http://www.w3.org/2000/svg"
   xmlns:xlink="http://www.w3.org/1999/xlink"
   xmlns:sodipodi="http://sodipodi.sourceforge.net/DTD/sodipodi-0.dtd"
   xmlns:inkscape="http://www.inkscape.org/namespaces/inkscape"
   width="300"
   height="300"
   id="svg3642"
   sodipodi:version="0.32"
   inkscape:version="0.46"
   sodipodi:docbase="/home/diau/failed Graphics attempts/plasma background/41/widgets"
   sodipodi:docname="panel-background.svgz"
   inkscape:output_extension="org.inkscape.output.svgz.inkscape"
   version="1.0">
  <defs
     id="defs3644">
    <linearGradient
       id="linearGradient39559">
      <stop
         id="stop39561"
         style="stop-color:#ffffff;stop-opacity:0.25882354;"
         offset="0" />
      <stop
         id="stop39563"
         style="stop-color:#ffffff;stop-opacity:0.12941177;"
         offset="1" />
    </linearGradient>
    <linearGradient
       inkscape:collect="always"
       id="linearGradient39325">
      <stop
         style="stop-color:#dadada;stop-opacity:0.39215687"
         offset="0"
         id="stop39327" />
      <stop
         style="stop-color:#dadada;stop-opacity:0;"
         offset="1"
         id="stop39329" />
    </linearGradient>
    <linearGradient
       id="linearGradient28017">
      <stop
         style="stop-color:#e0e0e0;stop-opacity:0.39215687;"
         offset="0"
         id="stop28019" />
      <stop
         style="stop-color:#e0e0e0;stop-opacity:0;"
         offset="1"
         id="stop28021" />
    </linearGradient>
    <radialGradient
       inkscape:collect="always"
       xlink:href="#linearGradient3962"
       id="radialGradient4115"
       gradientUnits="userSpaceOnUse"
       gradientTransform="matrix(157.72473,-146.48884,208.0002,223.99982,-32080.755,-12865.82)"
       cx="68.297699"
       cy="105.13701"
       fx="68.297699"
       fy="105.13701"
       r="2.5" />
    <radialGradient
       inkscape:collect="always"
       xlink:href="#linearGradient3962"
       id="radialGradient4113"
       cx="70"
       cy="85"
       fx="70"
       fy="85"
       r="2.5"
       gradientUnits="userSpaceOnUse"
       gradientTransform="matrix(19.715129,-18.306933,25.999946,27.999989,-3520.0546,-1013.5138)" />
    <radialGradient
       inkscape:collect="always"
       xlink:href="#linearGradient3962"
       id="radialGradient4117"
       gradientUnits="userSpaceOnUse"
       gradientTransform="matrix(-146.47185,-157.75566,224.23209,-208.19466,-9382.1845,33855.687)"
       cx="82.631424"
       cy="98.85289"
       fx="82.631424"
       fy="98.853104"
       r="2.5" />
    <radialGradient
       inkscape:collect="always"
       xlink:href="#linearGradient3962"
       id="radialGradient4111"
       cx="69.999947"
       cy="85.014236"
       fx="69.999947"
       fy="85.01445"
       r="2.5"
       gradientUnits="userSpaceOnUse"
       gradientTransform="matrix(19.660054,-18.371057,26.145417,27.979896,-3528.7978,-1007.5562)" />
    <radialGradient
       inkscape:collect="always"
       xlink:href="#linearGradient3962"
       id="radialGradient4127"
       gradientUnits="userSpaceOnUse"
       gradientTransform="matrix(146.50539,157.6925,-224.65703,208.68395,12768.608,-28625.036)"
       cx="59.349575"
       cy="95.013245"
       fx="59.349575"
       fy="95.013458"
       r="2.5" />
    <radialGradient
       inkscape:collect="always"
       xlink:href="#linearGradient3962"
       id="radialGradient4107"
       cx="69.999687"
       cy="85.005585"
       fx="69.999687"
       fy="85.005798"
       r="2.5"
       gradientTransform="matrix(19.717479,-18.309043,26.00733,28.008036,-3520.8483,-1014.0519)"
       gradientUnits="userSpaceOnUse" />
    <radialGradient
       inkscape:collect="always"
       xlink:href="#linearGradient3962"
       id="radialGradient4129"
       gradientUnits="userSpaceOnUse"
       gradientTransform="matrix(-157.71052,146.49352,-208.63092,-224.62591,30374.205,9244.4191)"
       cx="73.728828"
       cy="88.711441"
       fx="73.728836"
       fy="88.711655"
       r="2.5" />
    <radialGradient
       inkscape:collect="always"
       xlink:href="#linearGradient3962"
       id="radialGradient4109"
       cx="69.999939"
       cy="85.006172"
       fx="69.999947"
       fy="85.006386"
       r="2.5"
       gradientTransform="matrix(19.660035,-18.371077,26.143217,27.977526,-3528.3985,-1007.1279)"
       gradientUnits="userSpaceOnUse" />
    <radialGradient
       inkscape:collect="always"
       xlink:href="#linearGradient3962"
       id="radialGradient3968"
       cx="85"
       cy="-70"
       fx="85"
       fy="-70"
       r="45"
       gradientUnits="userSpaceOnUse"
       gradientTransform="matrix(-1.0171705,-1.0954138,1.5555552,-1.4444447,479.34835,-153.001)" />
    <linearGradient
       inkscape:collect="always"
       xlink:href="#linearGradient4139"
       id="linearGradient4145"
       x1="5"
       y1="0"
       x2="95"
       y2="0"
       gradientUnits="userSpaceOnUse" />
    <radialGradient
       inkscape:collect="always"
       xlink:href="#linearGradient3962"
       id="radialGradient4087"
       cx="84.999962"
       cy="-1217.5"
       fx="84.999962"
       fy="-1217.5"
       r="45"
       gradientTransform="matrix(-1.0171689,-1.0954139,1.5555541,-1.4444413,2065.3464,-1735.4971)"
       gradientUnits="userSpaceOnUse" />
    <linearGradient
       inkscape:collect="always"
       xlink:href="#linearGradient4139"
       id="linearGradient4137"
       x1="95"
       y1="0"
       x2="5"
       y2="0"
       gradientUnits="userSpaceOnUse" />
    <radialGradient
       inkscape:collect="always"
       xlink:href="#linearGradient3962"
       id="radialGradient4095"
       cx="30.000004"
       cy="-1487.5"
       fx="30.000004"
       fy="-1487.5"
       r="45"
       gradientTransform="matrix(-1.0954159,1.0171693,-1.4444397,-1.5555513,-2085.7414,-2429.3974)"
       gradientUnits="userSpaceOnUse" />
    <linearGradient
       inkscape:collect="always"
       xlink:href="#linearGradient4163"
       id="linearGradient4177"
       x1="95"
       y1="0"
       x2="5"
       y2="0"
       gradientUnits="userSpaceOnUse" />
    <linearGradient
       inkscape:collect="always"
       xlink:href="#linearGradient4139"
       id="linearGradient4161"
       x1="95"
       y1="0"
       x2="5"
       y2="0"
       gradientUnits="userSpaceOnUse" />
    <radialGradient
       inkscape:collect="always"
       xlink:href="#linearGradient3962"
       id="radialGradient4099"
       cx="70"
       cy="-227.50003"
       fx="70"
       fy="-227.50003"
       r="45"
       gradientTransform="matrix(1.0954154,-1.0171694,1.4444439,1.5555556,321.93192,410.09081)"
       gradientUnits="userSpaceOnUse" />
    <linearGradient
       inkscape:collect="always"
       id="linearGradient4163">
      <stop
         style="stop-color:#000000;stop-opacity:1;"
         offset="0"
         id="stop4165" />
      <stop
         style="stop-color:#000000;stop-opacity:0;"
         offset="1"
         id="stop4167" />
    </linearGradient>
    <linearGradient
       inkscape:collect="always"
       xlink:href="#linearGradient4163"
       id="linearGradient4169"
       x1="5"
       y1="0"
       x2="95"
       y2="0"
       gradientUnits="userSpaceOnUse" />
    <linearGradient
       id="linearGradient4139">
      <stop
         style="stop-color:#ffffff;stop-opacity:0.39215687;"
         offset="0"
         id="stop4141" />
      <stop
         style="stop-color:#ffffff;stop-opacity:0;"
         offset="1"
         id="stop4143" />
    </linearGradient>
    <linearGradient
       inkscape:collect="always"
       xlink:href="#linearGradient4139"
       id="linearGradient4153"
       x1="5"
       y1="0"
       x2="95"
       y2="0"
       gradientUnits="userSpaceOnUse" />
    <linearGradient
       id="linearGradient3962">
      <stop
         style="stop-color:#000000;stop-opacity:0.19607843;"
         offset="0"
         id="stop3964" />
      <stop
         style="stop-color:#000000;stop-opacity:0.58823532;"
         offset="1"
         id="stop3966" />
    </linearGradient>
    <radialGradient
       inkscape:collect="always"
       xlink:href="#linearGradient3962"
       id="radialGradient4097"
       cx="15"
       cy="-497.5"
       fx="15"
       fy="-497.5"
       r="45"
       gradientTransform="matrix(1.0171705,1.0954141,-1.5555556,1.4444444,-774.14645,672.17988)"
       gradientUnits="userSpaceOnUse" />
    <linearGradient
       id="linearGradient64407">
      <stop
         style="stop-color:#ffffff;stop-opacity:0.19607843;"
         offset="0"
         id="stop64409" />
      <stop
         style="stop-color:#ffffff;stop-opacity:0;"
         offset="1"
         id="stop64411" />
    </linearGradient>
    <linearGradient
       id="linearGradient64316">
      <stop
         style="stop-color:#ffffff;stop-opacity:0.27450982;"
         offset="0"
         id="stop64318" />
      <stop
         style="stop-color:#ffffff;stop-opacity:0;"
         offset="1"
         id="stop64320" />
    </linearGradient>
    <linearGradient
       id="linearGradient64244">
      <stop
         id="stop64246"
         style="stop-color:#ffffff;stop-opacity:0.39215687;"
         offset="0" />
      <stop
         id="stop64248"
         style="stop-color:#ffffff;stop-opacity:0;"
         offset="1" />
    </linearGradient>
    <inkscape:perspective
       sodipodi:type="inkscape:persp3d"
       inkscape:vp_x="0 : 124 : 1"
       inkscape:vp_y="0 : 1000 : 0"
       inkscape:vp_z="248 : 124 : 1"
       inkscape:persp3d-origin="124 : 82.666667 : 1"
       id="perspective62480" />
    <linearGradient
       id="linearGradient3632">
      <stop
         id="stop5543"
         style="stop-color:#ffffff;stop-opacity:1;"
         offset="0" />
      <stop
         id="stop3636"
         style="stop-color:#ffffff;stop-opacity:0.48245615;"
         offset="0.66101694" />
      <stop
         id="stop3638"
         style="stop-color:#ffffff;stop-opacity:0;"
         offset="1" />
    </linearGradient>
    <linearGradient
       id="linearGradient9124">
      <stop
         offset="0"
         style="stop-color:#005075;stop-opacity:1"
         id="stop9126" />
      <stop
         offset="1"
         style="stop-color:#002f46;stop-opacity:1"
         id="stop9128" />
    </linearGradient>
    <linearGradient
       id="linearGradient7366">
      <stop
         id="stop7368"
         style="stop-color:#000000;stop-opacity:0.55199999;"
         offset="0" />
      <stop
         id="stop7370"
         style="stop-color:#000000;stop-opacity:0.80800003;"
         offset="1" />
    </linearGradient>
    <linearGradient
       id="linearGradient4815">
      <stop
         offset="0"
         style="stop-color:#ffffff;stop-opacity:0.39215687;"
         id="stop4817" />
      <stop
         offset="1"
         style="stop-color:#ffffff;stop-opacity:0.29411766;"
         id="stop4821" />
    </linearGradient>
    <linearGradient
       id="linearGradient38324">
      <stop
         id="stop38326"
         style="stop-color:#ffffff;stop-opacity:0.77090907;"
         offset="0" />
      <stop
         offset="0.5"
         style="stop-color:#ffffff;stop-opacity:0.63636363;"
         id="stop3372" />
      <stop
         id="stop38328"
         style="stop-color:#ffffff;stop-opacity:0;"
         offset="1" />
    </linearGradient>
    <linearGradient
       id="linearGradient3215">
      <stop
         id="stop3217"
         style="stop-color:#ffffff;stop-opacity:1;"
         offset="0" />
      <stop
         id="stop3219"
         style="stop-color:#ffffff;stop-opacity:0;"
         offset="1" />
    </linearGradient>
    <linearGradient
       inkscape:collect="always"
       xlink:href="#linearGradient7366"
       id="linearGradient7821"
       gradientUnits="userSpaceOnUse"
       gradientTransform="matrix(6.4107602e-2,0,0,1,-66.399712,-620.82836)"
       x1="1280"
       y1="770"
       x2="1280"
       y2="800" />
    <linearGradient
       inkscape:collect="always"
       xlink:href="#linearGradient4815"
       id="linearGradient7823"
       gradientUnits="userSpaceOnUse"
       gradientTransform="matrix(6.4098738e-2,0,0,0.4999998,-66.399712,-237.82817)"
       x1="1280"
       y1="770"
       x2="1280"
       y2="824.34314" />
    <radialGradient
       inkscape:collect="always"
       xlink:href="#linearGradient3215"
       id="radialGradient7988"
       gradientUnits="userSpaceOnUse"
       gradientTransform="matrix(-1,0,0,0.4197507,464.21875,-578.31661)"
       cx="215"
       cy="1608.8442"
       fx="214.5"
       fy="1575.4911"
       r="91.609375" />
    <linearGradient
       inkscape:collect="always"
       xlink:href="#linearGradient7366"
       id="linearGradient7990"
       gradientUnits="userSpaceOnUse"
       gradientTransform="translate(91.89238,52.718983)"
       x1="-19.48601"
       y1="16.243258"
       x2="-14.927947"
       y2="16.243258" />
    <radialGradient
       inkscape:collect="always"
       xlink:href="#linearGradient3215"
       id="radialGradient7992"
       gradientUnits="userSpaceOnUse"
       gradientTransform="matrix(1,0,0,0.3189789,-1885.0312,23.337383)"
       cx="2040.6406"
       cy="136.14062"
       fx="2040.6406"
       fy="136.14062"
       r="91.609398" />
    <radialGradient
       inkscape:collect="always"
       xlink:href="#linearGradient3215"
       id="radialGradient7994"
       gradientUnits="userSpaceOnUse"
       gradientTransform="matrix(-0.1681654,4.5059775e-2,4.2099459e-2,0.1571173,416.84457,-50.706317)"
       cx="2132.25"
       cy="136.14069"
       fx="2132.25"
       fy="136.14069"
       r="91.609398" />
    <radialGradient
       inkscape:collect="always"
       xlink:href="#linearGradient3215"
       id="radialGradient7996"
       gradientUnits="userSpaceOnUse"
       gradientTransform="matrix(1,0,0,0.4197507,-153,-578.31661)"
       cx="215"
       cy="1608.8442"
       fx="214.5"
       fy="1575.4911"
       r="91.609375" />
    <linearGradient
       inkscape:collect="always"
       xlink:href="#linearGradient4815"
       id="linearGradient7998"
       gradientUnits="userSpaceOnUse"
       gradientTransform="translate(91.89238,52.718983)"
       x1="-20.799719"
       y1="15.967333"
       x2="-16.82419"
       y2="15.967333" />
    <radialGradient
       inkscape:collect="always"
       xlink:href="#linearGradient3215"
       id="radialGradient8000"
       gradientUnits="userSpaceOnUse"
       gradientTransform="matrix(-2.9411745e-2,0,0,0.4195896,83.565267,-578.06787)"
       cx="215"
       cy="1608.8442"
       fx="214.5"
       fy="1575.4911"
       r="91.609375" />
    <linearGradient
       inkscape:collect="always"
       xlink:href="#linearGradient7366"
       id="linearGradient8002"
       gradientUnits="userSpaceOnUse"
       gradientTransform="matrix(2.9411745e-2,0,0,0.9996163,77.614494,52.725597)"
       x1="-175.57373"
       y1="15.712251"
       x2="-21.914049"
       y2="15.712251" />
    <radialGradient
       inkscape:collect="always"
       xlink:href="#linearGradient3215"
       id="radialGradient8004"
       gradientUnits="userSpaceOnUse"
       gradientTransform="matrix(2.9411745e-2,0,0,0.3188565,14.469724,23.355271)"
       cx="2040.6406"
       cy="136.14062"
       fx="2040.6406"
       fy="136.14062"
       r="91.609398" />
    <radialGradient
       inkscape:collect="always"
       xlink:href="#linearGradient3215"
       id="radialGradient8006"
       gradientUnits="userSpaceOnUse"
       gradientTransform="matrix(-4.9460378e-3,4.5042486e-2,1.2382186e-3,0.157057,82.171903,-50.660019)"
       cx="2132.25"
       cy="136.14069"
       fx="2132.25"
       fy="136.14069"
       r="91.609398" />
    <radialGradient
       inkscape:collect="always"
       xlink:href="#linearGradient3215"
       id="radialGradient8008"
       gradientUnits="userSpaceOnUse"
       gradientTransform="matrix(2.9411745e-2,0,0,0.4195896,65.411787,-578.06787)"
       cx="215"
       cy="1608.8442"
       fx="214.5"
       fy="1575.4911"
       r="91.609375" />
    <radialGradient
       inkscape:collect="always"
       xlink:href="#linearGradient3215"
       id="radialGradient8010"
       gradientUnits="userSpaceOnUse"
       gradientTransform="matrix(-2.9411745e-2,0,0,-0.4195896,83.588241,705.0643)"
       cx="215"
       cy="1608.8442"
       fx="214.5"
       fy="1575.4911"
       r="91.609375" />
    <radialGradient
       inkscape:collect="always"
       xlink:href="#linearGradient3215"
       id="radialGradient8012"
       gradientUnits="userSpaceOnUse"
       gradientTransform="matrix(4.9460378e-3,4.5042486e-2,-1.2382186e-3,0.157057,66.828125,-50.660019)"
       cx="2132.25"
       cy="136.14069"
       fx="2132.25"
       fy="136.14069"
       r="91.609398" />
    <linearGradient
       inkscape:collect="always"
       xlink:href="#linearGradient4815"
       id="linearGradient8014"
       gradientUnits="userSpaceOnUse"
       gradientTransform="matrix(1.1764698e-2,0,0,0.9996163,74.2458,52.725597)"
       x1="-190.89305"
       y1="15.907771"
       x2="102.60474"
       y2="15.907771" />
    <linearGradient
       inkscape:collect="always"
       xlink:href="#linearGradient7366"
       id="linearGradient8036"
       gradientUnits="userSpaceOnUse"
       gradientTransform="translate(91.89238,-6.278821)"
       x1="-19.48601"
       y1="83.476944"
       x2="-14.923461"
       y2="83.476944" />
    <radialGradient
       inkscape:collect="always"
       xlink:href="#linearGradient3215"
       id="radialGradient8038"
       gradientUnits="userSpaceOnUse"
       gradientTransform="matrix(-0.1681654,4.6141801e-2,4.2099459e-2,0.1608902,416.84457,-114.18745)"
       cx="2132.25"
       cy="136.14069"
       fx="2132.25"
       fy="136.14069"
       r="91.609398" />
    <radialGradient
       inkscape:collect="always"
       xlink:href="#linearGradient3215"
       id="radialGradient8040"
       gradientUnits="userSpaceOnUse"
       gradientTransform="matrix(1,0,0,-0.3189789,-1885.0313,123.65928)"
       cx="2040.6406"
       cy="136.14062"
       fx="2040.6406"
       fy="136.14062"
       r="91.609398" />
    <radialGradient
       inkscape:collect="always"
       xlink:href="#linearGradient3215"
       id="radialGradient8042"
       gradientUnits="userSpaceOnUse"
       gradientTransform="matrix(0.1740976,0,0,-0.3189789,-124.0007,123.67117)"
       cx="2132.25"
       cy="136.14069"
       fx="2132.25"
       fy="136.14069"
       r="91.609398" />
    <radialGradient
       inkscape:collect="always"
       xlink:href="#linearGradient3215"
       id="radialGradient8044"
       gradientUnits="userSpaceOnUse"
       gradientTransform="matrix(1,0,0,0.4298302,-153,-654.46739)"
       cx="215"
       cy="1608.8442"
       fx="214.5"
       fy="1575.4911"
       r="91.609375" />
    <radialGradient
       inkscape:collect="always"
       xlink:href="#linearGradient3215"
       id="radialGradient8046"
       gradientUnits="userSpaceOnUse"
       gradientTransform="matrix(-0.1740976,0,0,-0.3189789,435.2195,123.63608)"
       cx="2132.25"
       cy="136.14069"
       fx="2132.25"
       fy="136.14069"
       r="91.609398" />
    <linearGradient
       inkscape:collect="always"
       xlink:href="#linearGradient7366"
       id="linearGradient8060"
       gradientUnits="userSpaceOnUse"
       gradientTransform="matrix(1,0,0,7.5757576e-2,91.89238,69.690183)"
       x1="-19.48601"
       y1="41.532444"
       x2="-14.929864"
       y2="41.532444" />
    <linearGradient
       inkscape:collect="always"
       xlink:href="#linearGradient4815"
       id="linearGradient8062"
       gradientUnits="userSpaceOnUse"
       gradientTransform="matrix(1,0,0,7.5757576e-2,91.89238,69.6911)"
       x1="-20.795174"
       y1="44.034363"
       x2="-16.82419"
       y2="44.034363" />
    <radialGradient
       inkscape:collect="always"
       xlink:href="#linearGradient3215"
       id="radialGradient8064"
       gradientUnits="userSpaceOnUse"
       gradientTransform="matrix(-0.1681654,3.412118e-3,4.2099459e-2,1.1897591e-2,416.84457,61.858905)"
       cx="2132.25"
       cy="136.14069"
       fx="2132.25"
       fy="136.14069"
       r="91.609398" />
    <radialGradient
       inkscape:collect="always"
       xlink:href="#linearGradient3215"
       id="radialGradient8066"
       gradientUnits="userSpaceOnUse"
       gradientTransform="matrix(1,0,0,3.1799296e-2,-153,21.884483)"
       cx="215"
       cy="1544.5876"
       fx="214.5"
       fy="1511.2345"
       r="91.609375" />
    <linearGradient
       inkscape:collect="always"
       xlink:href="#linearGradient7366"
       id="linearGradient8068"
       gradientUnits="userSpaceOnUse"
       gradientTransform="matrix(2.941176e-2,0,0,1,72.614423,-6.278817)"
       x1="-7.0738029"
       y1="82.858215"
       x2="148.16753"
       y2="82.858215" />
    <radialGradient
       inkscape:collect="always"
       xlink:href="#linearGradient3215"
       id="radialGradient8070"
       gradientUnits="userSpaceOnUse"
       gradientTransform="matrix(2.941176e-2,0,0,-0.3182575,14.46968,123.56738)"
       cx="2040.6406"
       cy="136.14062"
       fx="2040.6406"
       fy="136.14062"
       r="91.609398" />
    <radialGradient
       inkscape:collect="always"
       xlink:href="#linearGradient3215"
       id="radialGradient8072"
       gradientUnits="userSpaceOnUse"
       gradientTransform="matrix(5.1205168e-3,0,0,-0.3185758,66.264686,123.61888)"
       cx="2155.9846"
       cy="136.03664"
       fx="2155.9846"
       fy="136.03664"
       r="91.609398" />
    <radialGradient
       inkscape:collect="always"
       xlink:href="#linearGradient3215"
       id="radialGradient8074"
       gradientUnits="userSpaceOnUse"
       gradientTransform="matrix(-5.1205168e-3,0,0,-0.3185899,82.712337,123.58558)"
       cx="2132.25"
       cy="136.14069"
       fx="2132.25"
       fy="136.14069"
       r="91.609398" />
    <linearGradient
       inkscape:collect="always"
       xlink:href="#linearGradient7366"
       id="linearGradient8076"
       gradientUnits="userSpaceOnUse"
       gradientTransform="matrix(6.4107602e-2,0,0,1,-66.399712,-620.82836)"
       x1="1280"
       y1="770"
       x2="1280"
       y2="800" />
    <linearGradient
       inkscape:collect="always"
       xlink:href="#linearGradient4815"
       id="linearGradient8078"
       gradientUnits="userSpaceOnUse"
       gradientTransform="matrix(6.4107588e-2,0,0,0.4000001,-66.399703,-161.22843)"
       x1="1280"
       y1="765.53284"
       x2="1280"
       y2="824.34314" />
    <linearGradient
       inkscape:collect="always"
       xlink:href="#linearGradient4815"
       id="linearGradient8086"
       gradientUnits="userSpaceOnUse"
       gradientTransform="translate(91.89238,-6.278821)"
       x1="-20.795174"
       y1="85.469719"
       x2="-16.823818"
       y2="85.469719" />
    <linearGradient
       inkscape:collect="always"
       xlink:href="#linearGradient4815"
       id="linearGradient8090"
       gradientUnits="userSpaceOnUse"
       gradientTransform="matrix(1.1764704e-2,0,0,1,72.245734,-6.278817)"
       x1="-5.571207"
       y1="85.200508"
       x2="277.07864"
       y2="85.200508" />
    <inkscape:perspective
       id="perspective64233"
       inkscape:persp3d-origin="372.04724 : 350.78739 : 1"
       inkscape:vp_z="744.09448 : 526.18109 : 1"
       inkscape:vp_y="0 : 1000 : 0"
       inkscape:vp_x="0 : 526.18109 : 1"
       sodipodi:type="inkscape:persp3d" />
    <linearGradient
       inkscape:collect="always"
       xlink:href="#linearGradient64244"
       id="linearGradient64242"
       gradientUnits="userSpaceOnUse"
       gradientTransform="matrix(6.4098738e-2,0,0,0.5000002,-66.399712,-563.17164)"
       x1="1280"
       y1="770"
       x2="1280"
       y2="824.34314" />
    <linearGradient
       inkscape:collect="always"
       xlink:href="#linearGradient7366"
       id="linearGradient64258"
       gradientUnits="userSpaceOnUse"
       gradientTransform="matrix(6.4107602e-2,0,0,1,-66.399712,-620.82836)"
       x1="1280"
       y1="770"
       x2="1280"
       y2="800" />
    <linearGradient
       inkscape:collect="always"
       xlink:href="#linearGradient4815"
       id="linearGradient64260"
       gradientUnits="userSpaceOnUse"
       gradientTransform="matrix(6.4098738e-2,0,0,0.4999998,-66.399712,-237.82817)"
       x1="1280"
       y1="770"
       x2="1280"
       y2="824.34314" />
    <linearGradient
       inkscape:collect="always"
       xlink:href="#linearGradient64244"
       id="linearGradient64262"
       gradientUnits="userSpaceOnUse"
       gradientTransform="matrix(6.4098738e-2,0,0,0.5000002,-66.399712,-563.17164)"
       x1="1280"
       y1="770"
       x2="1280"
       y2="824.34314" />
    <linearGradient
       inkscape:collect="always"
       xlink:href="#linearGradient7366"
       id="linearGradient64280"
       gradientUnits="userSpaceOnUse"
       gradientTransform="matrix(6.4107602e-2,0,0,1,-66.399712,-620.82836)"
       x1="1280"
       y1="770"
       x2="1280"
       y2="800" />
    <linearGradient
       inkscape:collect="always"
       xlink:href="#linearGradient4815"
       id="linearGradient28013"
       gradientUnits="userSpaceOnUse"
       gradientTransform="matrix(6.409874e-2,0,0,1.0000006,-66.388383,-620.82874)"
       x1="1280"
       y1="770"
       x2="1280"
       y2="824.34314" />
    <linearGradient
       inkscape:collect="always"
       xlink:href="#linearGradient7366"
       id="linearGradient28033"
       gradientUnits="userSpaceOnUse"
       gradientTransform="matrix(6.4107602e-2,0,0,1,-66.399712,-620.82836)"
       x1="1280"
       y1="770"
       x2="1280"
       y2="800" />
    <linearGradient
       inkscape:collect="always"
       xlink:href="#linearGradient4815"
       id="linearGradient28035"
       gradientUnits="userSpaceOnUse"
       gradientTransform="matrix(6.409874e-2,0,0,1.0000006,-66.388383,-620.82874)"
       x1="1280"
       y1="770"
       x2="1280"
       y2="824.34314" />
    <linearGradient
       inkscape:collect="always"
       xlink:href="#linearGradient7366"
       id="linearGradient39205"
       gradientUnits="userSpaceOnUse"
       gradientTransform="matrix(6.4107602e-2,0,0,1,-66.399712,-620.82836)"
       x1="1280"
       y1="770"
       x2="1280"
       y2="800" />
    <linearGradient
       inkscape:collect="always"
       xlink:href="#linearGradient4815"
       id="linearGradient39207"
       gradientUnits="userSpaceOnUse"
       gradientTransform="matrix(6.409874e-2,0,0,1.0000006,-66.388383,-620.82874)"
       x1="1280"
       y1="770"
       x2="1280"
       y2="824.34314" />
    <linearGradient
       inkscape:collect="always"
       xlink:href="#linearGradient7366"
       id="linearGradient39235"
       gradientUnits="userSpaceOnUse"
       gradientTransform="matrix(6.4107602e-2,0,0,1,-66.399712,-620.82836)"
       x1="1280"
       y1="770"
       x2="1280"
       y2="800" />
    <linearGradient
       inkscape:collect="always"
       xlink:href="#linearGradient4815"
       id="linearGradient39237"
       gradientUnits="userSpaceOnUse"
       gradientTransform="matrix(6.4098738e-2,0,0,0.4999998,-66.399712,-237.82817)"
       x1="1280"
       y1="770"
       x2="1280"
       y2="824.34314" />
    <linearGradient
       inkscape:collect="always"
       xlink:href="#linearGradient64244"
       id="linearGradient39239"
       gradientUnits="userSpaceOnUse"
       gradientTransform="matrix(6.4098738e-2,0,0,0.5000002,-66.399712,-563.17164)"
       x1="1280"
       y1="770"
       x2="1280"
       y2="824.34314" />
    <linearGradient
       inkscape:collect="always"
       xlink:href="#linearGradient7366"
       id="linearGradient39253"
       gradientUnits="userSpaceOnUse"
       gradientTransform="matrix(6.4107602e-2,0,0,1,-66.399712,-620.82836)"
       x1="1280"
       y1="770"
       x2="1280"
       y2="800" />
    <linearGradient
       inkscape:collect="always"
       xlink:href="#linearGradient4815"
       id="linearGradient39255"
       gradientUnits="userSpaceOnUse"
       gradientTransform="matrix(6.4098738e-2,0,0,0.4999998,-66.399712,-237.82817)"
       x1="1280"
       y1="770"
       x2="1280"
       y2="824.34314" />
    <linearGradient
       inkscape:collect="always"
       xlink:href="#linearGradient64244"
       id="linearGradient39257"
       gradientUnits="userSpaceOnUse"
       gradientTransform="matrix(6.4098738e-2,0,0,0.5000002,-66.399712,-563.17164)"
       x1="1280"
       y1="770"
       x2="1280"
       y2="824.34314" />
    <linearGradient
       inkscape:collect="always"
       xlink:href="#linearGradient7366"
       id="linearGradient39303"
       gradientUnits="userSpaceOnUse"
       gradientTransform="matrix(6.4107602e-2,0,0,5.9999881,-84.558359,-4747.8215)"
       x1="1280"
       y1="770"
       x2="1280"
       y2="800" />
    <linearGradient
       inkscape:collect="always"
       xlink:href="#linearGradient39559"
       id="linearGradient39305"
       gradientUnits="userSpaceOnUse"
       gradientTransform="matrix(6.409874e-2,0,0,5.9999917,-84.54703,-4747.8238)"
       x1="1280"
       y1="770"
       x2="1280"
       y2="824.34314" />
    <linearGradient
       inkscape:collect="always"
       xlink:href="#linearGradient7366"
       id="linearGradient39307"
       gradientUnits="userSpaceOnUse"
       gradientTransform="matrix(6.4107602e-2,0,0,1,-66.399712,-620.82836)"
       x1="1280"
       y1="770"
       x2="1280"
       y2="800" />
    <linearGradient
       inkscape:collect="always"
       xlink:href="#linearGradient39559"
       id="linearGradient39309"
       gradientUnits="userSpaceOnUse"
       gradientTransform="matrix(6.409874e-2,0,0,1.0000006,-66.388383,-620.82874)"
       x1="1280"
       y1="770"
       x2="1280"
       y2="824.34314" />
    <linearGradient
       inkscape:collect="always"
       xlink:href="#linearGradient4815"
       id="linearGradient39313"
       gradientUnits="userSpaceOnUse"
       gradientTransform="matrix(3.7137734,0,0,0.8571432,-5107.2168,-813.00063)"
       x1="1280"
       y1="770"
       x2="1280"
       y2="824.34314" />
    <linearGradient
       inkscape:collect="always"
       xlink:href="#linearGradient7366"
       id="linearGradient39321"
       gradientUnits="userSpaceOnUse"
       gradientTransform="matrix(6.4107602e-2,0,0,5.9999881,-84.558359,-4747.8215)"
       x1="1280"
       y1="770"
       x2="1280"
       y2="800" />
    <linearGradient
       inkscape:collect="always"
       xlink:href="#linearGradient4815"
       id="linearGradient39323"
       gradientUnits="userSpaceOnUse"
       gradientTransform="matrix(6.409874e-2,0,0,5.9999917,-84.54703,-4747.8238)"
       x1="1280"
       y1="770"
       x2="1280"
       y2="824.34314" />
    <linearGradient
       inkscape:collect="always"
       xlink:href="#linearGradient7366"
       id="linearGradient39511"
       gradientUnits="userSpaceOnUse"
       gradientTransform="matrix(6.4107602e-2,0,0,5.9999881,-84.558359,-4747.8215)"
       x1="1280"
       y1="770"
       x2="1280"
       y2="800" />
    <linearGradient
       inkscape:collect="always"
       xlink:href="#linearGradient4815"
       id="linearGradient39513"
       gradientUnits="userSpaceOnUse"
       gradientTransform="matrix(6.409874e-2,0,0,5.9999917,-84.54703,-4747.8238)"
       x1="1280"
       y1="770"
       x2="1280"
       y2="824.34314" />
    <linearGradient
       inkscape:collect="always"
       xlink:href="#linearGradient4815"
       id="linearGradient39516"
       gradientUnits="userSpaceOnUse"
       gradientTransform="matrix(0.498049,0,0,0.8571432,-673.38394,-806.00062)"
       x1="1280"
       y1="770"
       x2="1280"
       y2="824.34314" />
    <linearGradient
       inkscape:collect="always"
       xlink:href="#linearGradient7366"
       id="linearGradient39519"
       gradientUnits="userSpaceOnUse"
       gradientTransform="matrix(0,-8.3810927e-3,0.8571427,0,-660.00029,118.10177)"
       x1="1280"
       y1="770"
       x2="1280"
       y2="800" />
    <linearGradient
       inkscape:collect="always"
       xlink:href="#linearGradient7366"
       id="linearGradient39530"
       gradientUnits="userSpaceOnUse"
       gradientTransform="matrix(0.4981179,0,0,-0.8571427,-673.4722,813.0003)"
       x1="1280"
       y1="770"
       x2="1280"
       y2="800" />
    <linearGradient
       inkscape:collect="always"
       xlink:href="#linearGradient4815"
       id="linearGradient39533"
       gradientUnits="userSpaceOnUse"
       gradientTransform="matrix(0,-8.3799334e-3,0.8571432,0,-647.00061,118.10028)"
       x1="1280"
       y1="770"
       x2="1280"
       y2="824.34314" />
    <linearGradient
       inkscape:collect="always"
       xlink:href="#linearGradient7366"
       id="linearGradient39540"
       gradientUnits="userSpaceOnUse"
       gradientTransform="matrix(0.4981179,0,0,-0.8571427,-673.4722,807.0003)"
       x1="1280"
       y1="770"
       x2="1280"
       y2="800" />
    <linearGradient
       inkscape:collect="always"
       xlink:href="#linearGradient39325"
       id="linearGradient39551"
       gradientUnits="userSpaceOnUse"
       x1="105.2122"
       y1="109"
       x2="105.2122"
       y2="110" />
    <linearGradient
       inkscape:collect="always"
       xlink:href="#linearGradient7366"
       id="linearGradient39553"
       gradientUnits="userSpaceOnUse"
       gradientTransform="matrix(6.4107602e-2,0,0,1,-66.399712,-620.82836)"
       x1="1280"
       y1="770"
       x2="1280"
       y2="800" />
    <linearGradient
       inkscape:collect="always"
       xlink:href="#linearGradient39559"
       id="linearGradient39569"
       gradientUnits="userSpaceOnUse"
       gradientTransform="matrix(0.498049,0,0,-0.8571432,-673.38364,813.00062)"
       x1="1280"
       y1="770"
       x2="1280"
       y2="824.34314" />
    <linearGradient
       inkscape:collect="always"
       xlink:href="#linearGradient39559"
       id="linearGradient39571"
       gradientUnits="userSpaceOnUse"
       gradientTransform="matrix(6.409874e-2,0,0,1.0000006,-66.388383,-620.82874)"
       x1="1280"
       y1="770"
       x2="1280"
       y2="824.34314" />
    <linearGradient
       inkscape:collect="always"
       xlink:href="#linearGradient7366"
       id="linearGradient3210"
       gradientUnits="userSpaceOnUse"
       gradientTransform="matrix(6.4107602e-2,0,0,1,-66.399712,-620.82836)"
       x1="1280"
       y1="770"
       x2="1280"
       y2="800" />
    <linearGradient
       inkscape:collect="always"
       xlink:href="#linearGradient4815"
       id="linearGradient3212"
       gradientUnits="userSpaceOnUse"
       gradientTransform="matrix(6.4098738e-2,0,0,0.4999998,-66.399712,-237.82817)"
       x1="1280"
       y1="770"
       x2="1280"
       y2="824.34314" />
    <linearGradient
       inkscape:collect="always"
       xlink:href="#linearGradient64244"
       id="linearGradient3214"
       gradientUnits="userSpaceOnUse"
       gradientTransform="matrix(6.4098738e-2,0,0,0.5000002,-66.399712,-563.17164)"
       x1="1280"
       y1="770"
       x2="1280"
       y2="824.34314" />
    <linearGradient
       inkscape:collect="always"
       xlink:href="#linearGradient7366"
       id="linearGradient3224"
       gradientUnits="userSpaceOnUse"
       gradientTransform="matrix(6.4107602e-2,0,0,1,-66.399712,-614.99502)"
       x1="1280"
       y1="770"
       x2="1280"
       y2="800" />
    <linearGradient
       inkscape:collect="always"
       xlink:href="#linearGradient4815"
       id="linearGradient3226"
       gradientUnits="userSpaceOnUse"
       gradientTransform="matrix(6.4098738e-2,0,0,0.4999998,-66.399712,-231.99484)"
       x1="1280"
       y1="770"
       x2="1280"
       y2="824.34314" />
    <linearGradient
       inkscape:collect="always"
       xlink:href="#linearGradient7366"
       id="linearGradient4350"
       gradientUnits="userSpaceOnUse"
       gradientTransform="matrix(-0.6037052,0,0,0.8571427,-290.73574,-557.33445)"
       x1="1311.353"
       y1="789.05701"
       x2="1311.353"
       y2="812.39032" />
    <linearGradient
       inkscape:collect="always"
       xlink:href="#linearGradient4815"
       id="linearGradient4362"
       gradientUnits="userSpaceOnUse"
       gradientTransform="matrix(-0.6036217,0,0,0.4285712,-290.73574,-229.04864)"
       x1="1280"
       y1="770"
       x2="1280"
       y2="824.34314" />
    <linearGradient
       inkscape:collect="always"
       xlink:href="#linearGradient7366"
       id="linearGradient4404"
       gradientUnits="userSpaceOnUse"
       gradientTransform="matrix(6.4107602e-2,0,0,1,-66.399712,-614.99502)"
       x1="1280"
       y1="770"
       x2="1280"
       y2="800" />
    <linearGradient
       inkscape:collect="always"
       xlink:href="#linearGradient4815"
       id="linearGradient4406"
       gradientUnits="userSpaceOnUse"
       gradientTransform="matrix(6.4098738e-2,0,0,0.4999998,-66.399712,-231.99484)"
       x1="1280"
       y1="770"
       x2="1280"
       y2="824.34314" />
    <linearGradient
       inkscape:collect="always"
       xlink:href="#linearGradient7366"
       id="linearGradient4408"
       gradientUnits="userSpaceOnUse"
       gradientTransform="matrix(-0.6037052,0,0,0.8571427,-290.73574,-557.33445)"
       x1="1311.353"
       y1="789.05701"
       x2="1311.353"
       y2="812.39032" />
    <linearGradient
       inkscape:collect="always"
       xlink:href="#linearGradient4815"
       id="linearGradient4410"
       gradientUnits="userSpaceOnUse"
       gradientTransform="matrix(-0.6036217,0,0,0.4285712,-290.73574,-229.04864)"
       x1="1280"
       y1="770"
       x2="1280"
       y2="824.34314" />
    <linearGradient
       inkscape:collect="always"
       xlink:href="#linearGradient7366"
       id="linearGradient4412"
       gradientUnits="userSpaceOnUse"
       gradientTransform="matrix(6.4107602e-2,0,0,1,-66.399712,-620.82836)"
       x1="1280"
       y1="770"
       x2="1280"
       y2="800" />
    <linearGradient
       inkscape:collect="always"
       xlink:href="#linearGradient4815"
       id="linearGradient4414"
       gradientUnits="userSpaceOnUse"
       gradientTransform="matrix(6.4098738e-2,0,0,0.4999998,-66.399712,-237.82817)"
       x1="1280"
       y1="770"
       x2="1280"
       y2="824.34314" />
    <linearGradient
       inkscape:collect="always"
       xlink:href="#linearGradient64244"
       id="linearGradient4416"
       gradientUnits="userSpaceOnUse"
       gradientTransform="matrix(6.4098738e-2,0,0,0.5000002,-66.399712,-563.17164)"
       x1="1280"
       y1="770"
       x2="1280"
       y2="824.34314" />
  </defs>
  <sodipodi:namedview
     id="base"
     pagecolor="#142530"
     bordercolor="#666666"
     borderopacity="1.0"
     inkscape:pageopacity="0.88627451"
     inkscape:pageshadow="2"
     inkscape:zoom="7.3990013"
     inkscape:cx="144.04554"
     inkscape:cy="271.27147"
     inkscape:current-layer="layer1"
     showgrid="true"
     inkscape:grid-bbox="true"
     inkscape:document-units="px"
     inkscape:window-width="1298"
     inkscape:window-height="840"
     inkscape:window-x="137"
     inkscape:window-y="35"
     width="148px"
     height="148px"
     objecttolerance="23"
     gridtolerance="10"
     guidetolerance="25"
     showguides="true"
     inkscape:guide-bbox="true">
    <inkscape:grid
       type="xygrid"
       id="grid3357"
       visible="true"
       enabled="true" />
  </sodipodi:namedview>
  <metadata
     id="metadata3647">
    <rdf:RDF>
      <cc:Work
         rdf:about="">
        <dc:format>image/svg+xml</dc:format>
        <dc:type
           rdf:resource="http://purl.org/dc/dcmitype/StillImage" />
      </cc:Work>
      <cc:Work
         rdf:about="">
        <dc:format>image/svg+xml</dc:format>
        <dc:type
           rdf:resource="http://purl.org/dc/dcmitype/StillImage" />
      </cc:Work>
      <cc:Work
         rdf:about="">
        <dc:format>image/svg+xml</dc:format>
        <dc:type
           rdf:resource="http://purl.org/dc/dcmitype/StillImage" />
      </cc:Work>
    </rdf:RDF>
  </metadata>
  <g
     id="layer1"
     inkscape:label="Layer 1"
     inkscape:groupmode="layer">
    <g
       transform="matrix(1.682552,0,0,-1,22.975076,195)"
       id="old-north-bottom">
      <rect
         height="1"
         x="45.778629"
         y="109"
         width="59.433529"
         id="rect7809"
         style="fill:#dadada;fill-opacity:0.39215686;stroke:none;stroke-width:3.20000005;stroke-linecap:round;stroke-linejoin:round;stroke-miterlimit:4;stroke-dasharray:none;stroke-dashoffset:0;stroke-opacity:1" />
    </g>
    <g
       transform="matrix(1.2186542,0,0,0.8571427,180.91829,-69.432804)"
       id="old-north-center">
      <rect
         height="35"
         x="-66.399712"
         y="145.17163"
         width="82.057732"
         id="rect7817"
         style="opacity:0.81589954;fill:url(#linearGradient7821);fill-opacity:1;stroke:none;stroke-width:3.20000005;stroke-linecap:round;stroke-linejoin:round;stroke-miterlimit:4;stroke-dasharray:none;stroke-dashoffset:0;stroke-opacity:1" />
      <rect
         style="opacity:0.5;fill:url(#linearGradient7823);fill-opacity:1;stroke:none;stroke-width:3.20000005;stroke-linecap:round;stroke-linejoin:round;stroke-miterlimit:4;stroke-dasharray:none;stroke-dashoffset:0;stroke-opacity:1"
         id="rect7819"
         width="82.046402"
         y="145.17163"
         x="-66.399712"
         height="17.499992" />
      <rect
         height="17.500004"
         x="-66.399712"
         y="-180.17163"
         width="82.046402"
         id="rect64240"
         style="opacity:0.5;fill:url(#linearGradient64242);fill-opacity:1;stroke:none;stroke-width:3.20000005;stroke-linecap:round;stroke-linejoin:round;stroke-miterlimit:4;stroke-dasharray:none;stroke-dashoffset:0;stroke-opacity:1"
         transform="scale(1,-1)" />
    </g>
    <g
       transform="matrix(0,-1.6825521,-1,0,195,277.02493)"
       id="old-west-right"
       style="fill:#dadada;fill-opacity:0.39215686">
      <rect
         height="1"
         x="45.778629"
         y="109"
         width="59.433529"
         id="rect7837"
         style="fill:#dadada;fill-opacity:0.39215686;stroke:none;stroke-width:3.20000005;stroke-linecap:round;stroke-linejoin:round;stroke-miterlimit:4;stroke-dasharray:none;stroke-dashoffset:0;stroke-opacity:1" />
    </g>
    <g
       id="old-east-left"
       transform="matrix(0,-1.6825519,1,0,105,277.02492)"
       style="fill:#dadada;fill-opacity:0.39215686">
      <rect
         style="fill:#dadada;fill-opacity:0.39215686;stroke:none;stroke-width:3.20000005;stroke-linecap:round;stroke-linejoin:round;stroke-miterlimit:4;stroke-dasharray:none;stroke-dashoffset:0;stroke-opacity:1"
         id="rect7845"
         width="59.433529"
         y="109"
         x="45.778629"
         height="1" />
    </g>
    <rect
       style="opacity:0.875;fill:#008000;fill-opacity:1;stroke:none;stroke-width:0;stroke-miterlimit:4;stroke-dasharray:none;stroke-opacity:1"
       id="west-hint-right-margin"
       width="6"
       height="4"
       x="90"
       y="150" />
    <rect
       y="150"
       x="204"
       height="4"
       width="6"
       id="east-hint-left-margin"
       style="opacity:0.875;fill:#008000;fill-opacity:1;stroke:none;stroke-width:0;stroke-miterlimit:4;stroke-dasharray:none;stroke-opacity:1" />
    <rect
       y="75.735054"
       x="71.753067"
       height="4"
       width="4.2070103"
       id="hint-stretch-borders"
       style="opacity:0.875;fill:#008000;fill-opacity:1;stroke:none;stroke-width:0;stroke-miterlimit:4;stroke-dasharray:none;stroke-opacity:1" />
    <g
       id="old-south-center"
       transform="matrix(1.2187552,0,0,0.8571427,180.92499,90.567202)"
       inkscape:label="#g64250">
      <rect
         style="opacity:0.81589954;fill:url(#linearGradient64258);fill-opacity:1;stroke:none;stroke-width:3.20000005;stroke-linecap:round;stroke-linejoin:round;stroke-miterlimit:4;stroke-dasharray:none;stroke-dashoffset:0;stroke-opacity:1"
         id="rect64252"
         width="82.057732"
         y="145.17163"
         x="-66.399712"
         height="35" />
      <rect
         height="17.499992"
         x="-66.399712"
         y="145.17163"
         width="82.046402"
         id="rect64254"
         style="opacity:0.5;fill:url(#linearGradient64260);fill-opacity:1;stroke:none;stroke-width:3.20000005;stroke-linecap:round;stroke-linejoin:round;stroke-miterlimit:4;stroke-dasharray:none;stroke-dashoffset:0;stroke-opacity:1" />
      <rect
         transform="scale(1,-1)"
         style="opacity:0.5;fill:url(#linearGradient64262);fill-opacity:1;stroke:none;stroke-width:3.20000005;stroke-linecap:round;stroke-linejoin:round;stroke-miterlimit:4;stroke-dasharray:none;stroke-dashoffset:0;stroke-opacity:1"
         id="rect64256"
         width="82.046402"
         y="-180.17163"
         x="-66.399712"
         height="17.500004" />
    </g>
    <g
       id="old-south-top"
       transform="matrix(-1.6825519,0,0,1,277.02492,105)"
       inkscape:label="#g64264"
       style="fill:#dadada;fill-opacity:0.39215686">
      <rect
         style="fill:#dadada;fill-opacity:0.39215686;stroke:none;stroke-width:3.20000005;stroke-linecap:round;stroke-linejoin:round;stroke-miterlimit:4;stroke-dasharray:none;stroke-dashoffset:0;stroke-opacity:1"
         id="rect64266"
         width="59.433529"
         y="109"
         x="45.778629"
         height="1" />
    </g>
    <g
       id="old-west-center"
       transform="matrix(0,-1.2185531,0.8571427,0,-69.432804,119.08013)"
       inkscape:label="#g64272">
      <rect
         style="opacity:0.81589954;fill:url(#linearGradient64280);fill-opacity:1;stroke:none;stroke-width:3.20000005;stroke-linecap:round;stroke-linejoin:round;stroke-miterlimit:4;stroke-dasharray:none;stroke-dashoffset:0;stroke-opacity:1"
         id="rect64274"
         width="82.057732"
         y="145.17163"
         x="-66.399712"
         height="35" />
      <rect
         style="opacity:0.5;fill:url(#linearGradient28013);fill-opacity:1;stroke:none;stroke-width:3.20000005;stroke-linecap:round;stroke-linejoin:round;stroke-miterlimit:4;stroke-dasharray:none;stroke-dashoffset:0;stroke-opacity:1"
         id="rect28011"
         width="82.046402"
         y="145.17163"
         x="-66.388374"
         height="35.000015" />
    </g>
    <g
       inkscape:label="#g64272"
       transform="matrix(0,-1.2187215,-0.8571427,0,369.43281,119.09106)"
       id="old-east-center">
      <rect
         height="35"
         x="-66.399712"
         y="145.17163"
         width="82.057732"
         id="rect28027"
         style="opacity:0.81589954;fill:url(#linearGradient28033);fill-opacity:1;stroke:none;stroke-width:3.20000005;stroke-linecap:round;stroke-linejoin:round;stroke-miterlimit:4;stroke-dasharray:none;stroke-dashoffset:0;stroke-opacity:1" />
      <rect
         height="35.000015"
         x="-66.388374"
         y="145.17163"
         width="82.046402"
         id="rect28029"
         style="opacity:0.5;fill:url(#linearGradient28035);fill-opacity:1;stroke:none;stroke-width:3.20000005;stroke-linecap:round;stroke-linejoin:round;stroke-miterlimit:4;stroke-dasharray:none;stroke-dashoffset:0;stroke-opacity:1" />
    </g>
    <g
       style="fill:#dadada;fill-opacity:0.39215686"
       id="west-right"
       transform="matrix(0,-1.3460414,-1,0,159.00001,251.61993)"
       inkscape:label="#g39195">
      <g
         inkscape:label="#g64272"
         transform="matrix(0.7242291,0,0,-0.1142857,93.872171,130.59104)"
         id="g39297">
        <rect
           height="35"
           x="-66.399712"
           y="145.17163"
           width="82.057732"
           id="rect39299"
           style="opacity:0.81589954;fill:url(#linearGradient39303);fill-opacity:1;stroke:none;stroke-width:3.20000005;stroke-linecap:round;stroke-linejoin:round;stroke-miterlimit:4;stroke-dasharray:none;stroke-dashoffset:0;stroke-opacity:1" />
        <rect
           height="35.000015"
           x="-66.388374"
           y="145.17163"
           width="82.046402"
           id="rect39301"
           style="opacity:0.50000000000000000;fill:url(#linearGradient39305);fill-opacity:1.0;stroke:none;stroke-width:3.20000004999999987;stroke-linecap:round;stroke-linejoin:round;stroke-miterlimit:4;stroke-dasharray:none;stroke-dashoffset:0;stroke-opacity:1" />
      </g>
      <rect
         style="fill:#dadada;fill-opacity:0.39215686;stroke:none;stroke-width:3.20000005;stroke-linecap:round;stroke-linejoin:round;stroke-miterlimit:4;stroke-dasharray:none;stroke-dashoffset:0;stroke-opacity:1"
         id="rect39197"
         width="59.433529"
         y="109"
         x="45.778629"
         height="1" />
    </g>
    <g
       inkscape:label="#g64272"
       transform="matrix(0,-0.9748423,0.8571427,0,-109.43281,125.2818)"
       id="west-center">
      <rect
         height="35"
         x="-66.399712"
         y="145.17163"
         width="82.057732"
         id="rect39201"
         style="opacity:0.81589954;fill:url(#linearGradient39307);fill-opacity:1;stroke:none;stroke-width:3.20000005;stroke-linecap:round;stroke-linejoin:round;stroke-miterlimit:4;stroke-dasharray:none;stroke-dashoffset:0;stroke-opacity:1" />
      <rect
         height="35.000015"
         x="-66.388374"
         y="145.17163"
         width="82.046402"
         id="rect39203"
         style="opacity:0.50000000000000000;fill:url(#linearGradient39309);fill-opacity:1.0;stroke:none;stroke-width:3.20000004999999987;stroke-linecap:round;stroke-linejoin:round;stroke-miterlimit:4;stroke-dasharray:none;stroke-dashoffset:0;stroke-opacity:1" />
    </g>
    <g
       id="north-center"
       transform="matrix(0.9750748,0,0,0.8571427,174.74469,-114.4328)"
       inkscape:label="#g39227">
      <rect
         style="opacity:0.81589954;fill:url(#linearGradient39235);fill-opacity:1;stroke:none;stroke-width:3.20000005;stroke-linecap:round;stroke-linejoin:round;stroke-miterlimit:4;stroke-dasharray:none;stroke-dashoffset:0;stroke-opacity:1"
         id="rect39229"
         width="82.057732"
         y="145.17163"
         x="-66.399712"
         height="35" />
      <rect
         height="17.499992"
         x="-66.399712"
         y="145.17163"
         width="82.046402"
         id="rect39231"
         style="opacity:0.5;fill:url(#linearGradient39237);fill-opacity:1;stroke:none;stroke-width:3.20000005;stroke-linecap:round;stroke-linejoin:round;stroke-miterlimit:4;stroke-dasharray:none;stroke-dashoffset:0;stroke-opacity:1" />
      <rect
         transform="scale(1,-1)"
         style="opacity:0.5;fill:url(#linearGradient39239);fill-opacity:1;stroke:none;stroke-width:3.20000005;stroke-linecap:round;stroke-linejoin:round;stroke-miterlimit:4;stroke-dasharray:none;stroke-dashoffset:0;stroke-opacity:1"
         id="rect39233"
         width="82.046402"
         y="-180.17163"
         x="-66.399712"
         height="17.500004" />
    </g>
    <g
       inkscape:label="#g64250"
       transform="matrix(0.9749234,0,0,0.8571427,174.73463,135.5672)"
       id="south-center">
      <rect
         height="35"
         x="-66.399712"
         y="145.17163"
         width="82.057732"
         id="rect39243"
         style="opacity:0.81589954;fill:url(#linearGradient39253);fill-opacity:1;stroke:none;stroke-width:3.20000005;stroke-linecap:round;stroke-linejoin:round;stroke-miterlimit:4;stroke-dasharray:none;stroke-dashoffset:0;stroke-opacity:1" />
      <rect
         style="opacity:0.5;fill:url(#linearGradient39255);fill-opacity:1;stroke:none;stroke-width:3.20000005;stroke-linecap:round;stroke-linejoin:round;stroke-miterlimit:4;stroke-dasharray:none;stroke-dashoffset:0;stroke-opacity:1"
         id="rect39245"
         width="82.046402"
         y="145.17163"
         x="-66.399712"
         height="17.499992" />
      <rect
         height="17.500004"
         x="-66.399712"
         y="-180.17163"
         width="82.046402"
         id="rect39247"
         style="opacity:0.5;fill:url(#linearGradient39257);fill-opacity:1;stroke:none;stroke-width:3.20000005;stroke-linecap:round;stroke-linejoin:round;stroke-miterlimit:4;stroke-dasharray:none;stroke-dashoffset:0;stroke-opacity:1"
         transform="scale(1,-1)" />
    </g>
    <g
       style="fill:#dadada;fill-opacity:0.39215686"
       id="west-top"
       transform="matrix(0,-1.682552e-2,-30,0,3315,106.77025)"
       inkscape:label="#g39195">
      <g
         inkscape:label="#g64272"
         transform="matrix(2.8971562,0,0,-2.8571423e-2,0.4149,114.14776)"
         id="g39275">
        <rect
           height="35"
           x="-66.399712"
           y="145.17163"
           width="82.057732"
           id="rect39277"
           style="opacity:0.81589954;fill:url(#linearGradient39553);fill-opacity:1;stroke:none;stroke-width:3.20000005;stroke-linecap:round;stroke-linejoin:round;stroke-miterlimit:4;stroke-dasharray:none;stroke-dashoffset:0;stroke-opacity:1" />
        <rect
           height="35.000015"
           x="-66.388374"
           y="145.17163"
           width="82.046402"
           id="rect39279"
           style="opacity:0.50000000000000000;fill:url(#linearGradient39571);fill-opacity:1;stroke:none;stroke-width:3.20000004999999987;stroke-linecap:round;stroke-linejoin:round;stroke-miterlimit:4;stroke-dasharray:none;stroke-dashoffset:0;stroke-opacity:1" />
      </g>
      <rect
         style="fill:url(#linearGradient39551);fill-opacity:1;stroke:none;stroke-width:3.20000005;stroke-linecap:round;stroke-linejoin:round;stroke-miterlimit:4;stroke-dasharray:none;stroke-dashoffset:0;stroke-opacity:1"
         id="rect39265"
         width="59.433529"
         y="109"
         x="45.778629"
         height="1" />
    </g>
    <use
       x="0"
       y="0"
       xlink:href="#west-top"
       id="west-bottom"
       transform="matrix(1,0,0,-1,0,300)"
       width="300"
       height="300"
       inkscape:label="#use39285" />
    <g
       inkscape:label="#g39195"
       transform="matrix(0,-1.682552e-2,-1,0,159.00001,106.77025)"
       id="west-topright"
       style="fill:#dadada;fill-opacity:0.39215686">
      <path
         style="opacity:1;fill:#dadada;fill-opacity:0.39215686;stroke:none;stroke-width:1.0629921;stroke-linecap:round;stroke-linejoin:round;stroke-miterlimit:4;stroke-dasharray:none;stroke-dashoffset:0;stroke-opacity:1"
         d="M 105.21227,114.00001 L 45.778738,114.00001 C 45.778738,111.79201 -60.726142,110.00001 -191.95537,110.00001 L -191.95537,109.00001 C -27.918835,109.00001 105.21227,111.24001 105.21227,114.00001 z"
         id="path39501" />
      <path
         style="opacity:0.81589954;fill:url(#linearGradient39530);fill-opacity:1;stroke:none;stroke-width:3.20000005;stroke-linecap:round;stroke-linejoin:round;stroke-miterlimit:4;stroke-dasharray:none;stroke-dashoffset:0;stroke-opacity:1"
         d="M 45.778674,114.00001 L -191.95543,114.00001 L -191.95543,110.00001 C -60.726206,110.00001 45.778674,111.79201 45.778674,114.00001 z"
         id="rect39507" />
      <path
         style="opacity:0.50000000000000000;fill:url(#linearGradient39569);fill-opacity:1;stroke:none;stroke-width:3.20000004999999987;stroke-linecap:round;stroke-linejoin:round;stroke-miterlimit:4;stroke-dasharray:none;stroke-dashoffset:0;stroke-opacity:1"
         d="M 45.778674,114.00001 L -191.95543,114.00001 L -191.95543,110.00001 C -60.726206,110.00001 45.778674,111.79201 45.778674,114.00001 z"
         id="rect39509" />
    </g>
    <use
       x="0"
       y="0"
       xlink:href="#west-topright"
       id="west-bottomright"
       transform="matrix(1,0,0,-1,0,300)"
       width="300"
       height="300"
       inkscape:label="#use39557" />
    <use
       x="0"
       y="0"
       xlink:href="#west-right"
       id="east-left"
       transform="matrix(-1,0,0,1,299.99999,-1.7699751e-2)"
       width="300"
       height="300"
       inkscape:label="#use3128" />
    <use
       x="0"
       y="0"
       xlink:href="#west-center"
       id="east-center"
       transform="matrix(-1,0,0,1,299.99999,-1.7699751e-2)"
       width="300"
       height="300"
       inkscape:label="#use3130" />
    <use
       x="0"
       y="0"
       xlink:href="#west-top"
       id="east-top"
       transform="matrix(-1,0,0,1,299.99999,-1.7699751e-2)"
       width="300"
       height="300"
       inkscape:label="#use3132" />
    <use
       x="0"
       y="0"
       xlink:href="#west-bottom"
       id="east-bottom"
       transform="matrix(-1,0,0,1,299.99999,-1.7699751e-2)"
       width="300"
       height="300"
       inkscape:label="#use3134" />
    <use
       x="0"
       y="0"
       xlink:href="#west-topright"
       id="east-topleft"
       transform="matrix(-1,0,0,1,299.99999,-1.7699751e-2)"
       width="300"
       height="300"
       inkscape:label="#use3136" />
    <use
       x="0"
       y="0"
       xlink:href="#west-bottomright"
       id="east-bottomleft"
       transform="matrix(-1,0,0,1,299.99999,-1.7699751e-2)"
       width="300"
       height="300"
       inkscape:label="#use3138" />
    <g
       inkscape:label="#g39195"
       transform="matrix(-1.3460414,0,0,1,251.63763,146)"
       id="south-top"
       style="fill:#dadada;fill-opacity:0.39215686">
      <g
         id="g3142"
         transform="matrix(0.7242291,0,0,-0.1142857,93.872171,130.59104)"
         inkscape:label="#g64272" />
      <rect
         height="1"
         x="45.778629"
         y="109"
         width="59.433529"
         id="rect3148"
         style="fill:#dadada;fill-opacity:0.39215686;stroke:none;stroke-width:3.20000005;stroke-linecap:round;stroke-linejoin:round;stroke-miterlimit:4;stroke-dasharray:none;stroke-dashoffset:0;stroke-opacity:1" />
      <g
         inkscape:label="#g64250"
         transform="matrix(-0.7242893,0,0,0.8571427,57.124509,-15.432798)"
         id="g3216">
        <rect
           height="4.6666675"
           x="-66.399712"
           y="146.33829"
           width="82.057732"
           id="rect3218"
           style="opacity:0.81589954;fill:url(#linearGradient3224);fill-opacity:1;stroke:none;stroke-width:3.20000005;stroke-linecap:round;stroke-linejoin:round;stroke-miterlimit:4;stroke-dasharray:none;stroke-dashoffset:0;stroke-opacity:1" />
        <rect
           style="opacity:0.5;fill:url(#linearGradient3226);fill-opacity:1;stroke:none;stroke-width:3.20000005;stroke-linecap:round;stroke-linejoin:round;stroke-miterlimit:4;stroke-dasharray:none;stroke-dashoffset:0;stroke-opacity:1"
           id="rect3220"
           width="82.046402"
           y="146.33829"
           x="-66.399712"
           height="4.6666656" />
      </g>
    </g>
    <g
       style="fill:#dadada;fill-opacity:0.39215686"
       id="south-topleft"
       transform="matrix(-1.682552e-2,0,0,1,106.78795,146)"
       inkscape:label="#g39195">
      <path
         style="opacity:0.81589953999999998;fill:url(#linearGradient4350);fill-opacity:1;stroke:none;stroke-width:3.20000004999999987;stroke-linecap:round;stroke-linejoin:round;stroke-miterlimit:4;stroke-dasharray:none;stroke-dashoffset:0;stroke-opacity:1"
         d="M -190.90346,110 C -59.674233,110 46.830647,111.792 46.830647,114 L -190.90346,114 L -190.90346,110 z"
         id="rect3232" />
      <path
         id="path3152"
         d="M 105.21227,114.00001 L 45.778738,114.00001 C 45.778738,111.79201 -60.726142,110.00001 -191.95537,110.00001 L -191.95537,109.00001 C -27.918835,109.00001 105.21227,111.24001 105.21227,114.00001 z"
         style="opacity:1;fill:#dadada;fill-opacity:0.39215686;stroke:none;stroke-width:1.0629921;stroke-linecap:round;stroke-linejoin:round;stroke-miterlimit:4;stroke-dasharray:none;stroke-dashoffset:0;stroke-opacity:1" />
      <path
         style="opacity:0.5;fill:url(#linearGradient4362);fill-opacity:1;stroke:none;stroke-width:3.20000005;stroke-linecap:round;stroke-linejoin:round;stroke-miterlimit:4;stroke-dasharray:none;stroke-dashoffset:0;stroke-opacity:1"
         d="M -190.90346,110 C -59.674233,110 46.830647,111.792 46.830647,114 L -190.90346,114 L -190.90346,110 z"
         id="rect3234" />
    </g>
    <use
       x="0"
       y="0"
       xlink:href="#south-topleft"
       id="south-topright"
       transform="matrix(-1,0,0,1,300.0177,-10e-6)"
       width="300"
       height="300"
       inkscape:label="#use3166" />
    <g
       style="fill:#dadada;fill-opacity:0.39215686"
       id="south-left"
       transform="matrix(0,-0.5050633,1,0,-3.9999985,313.1388)"
       inkscape:label="#g39195">
      <g
         inkscape:label="#g64272"
         transform="matrix(0.7242291,0,0,-0.1142857,93.872171,130.59104)"
         id="g3170" />
      <rect
         style="fill:#dadada;fill-opacity:0.39215686;stroke:none;stroke-width:3.20000005;stroke-linecap:round;stroke-linejoin:round;stroke-miterlimit:4;stroke-dasharray:none;stroke-dashoffset:0;stroke-opacity:1"
         id="rect3176"
         width="59.433529"
         y="109"
         x="45.778629"
         height="1" />
      <g
         inkscape:label="#g64250"
         transform="matrix(0,4.9584216e-2,-1.6970996,0,351.58287,113.22417)"
         id="g3184">
        <rect
           height="35"
           x="-66.399712"
           y="145.17163"
           width="82.057732"
           id="rect3186"
           style="opacity:0.81589954;fill:url(#linearGradient3210);fill-opacity:1;stroke:none;stroke-width:3.20000005;stroke-linecap:round;stroke-linejoin:round;stroke-miterlimit:4;stroke-dasharray:none;stroke-dashoffset:0;stroke-opacity:1" />
        <rect
           style="opacity:0.5;fill:url(#linearGradient3212);fill-opacity:1;stroke:none;stroke-width:3.20000005;stroke-linecap:round;stroke-linejoin:round;stroke-miterlimit:4;stroke-dasharray:none;stroke-dashoffset:0;stroke-opacity:1"
           id="rect3188"
           width="82.046402"
           y="145.17163"
           x="-66.399712"
           height="17.499992" />
        <rect
           height="17.500004"
           x="-66.399712"
           y="-180.17163"
           width="82.046402"
           id="rect3190"
           style="opacity:0.5;fill:url(#linearGradient3214);fill-opacity:1;stroke:none;stroke-width:3.20000005;stroke-linecap:round;stroke-linejoin:round;stroke-miterlimit:4;stroke-dasharray:none;stroke-dashoffset:0;stroke-opacity:1"
           transform="scale(1,-1)" />
      </g>
    </g>
    <use
       x="0"
       y="0"
       xlink:href="#south-left"
       id="south-right"
       transform="matrix(-1,0,0,1,300,-1.7780764e-7)"
       width="300"
       height="300"
       inkscape:label="#use3182" />
    <g
       style="fill:#dadada;fill-opacity:0.39215686"
       id="north-bottom"
       transform="matrix(-1.3460414,0,0,-1,251.62658,154)"
       inkscape:label="#g39195">
      <g
         inkscape:label="#g64272"
         transform="matrix(0.7242291,0,0,-0.1142857,93.872171,130.59104)"
         id="g4368" />
      <rect
         style="fill:#dadada;fill-opacity:0.39215686;stroke:none;stroke-width:3.20000005;stroke-linecap:round;stroke-linejoin:round;stroke-miterlimit:4;stroke-dasharray:none;stroke-dashoffset:0;stroke-opacity:1"
         id="rect4370"
         width="59.433529"
         y="109"
         x="45.778629"
         height="1" />
      <g
         id="g4372"
         transform="matrix(-0.7242893,0,0,0.8571427,57.124509,-15.432798)"
         inkscape:label="#g64250">
        <rect
           style="opacity:0.81589954;fill:url(#linearGradient4404);fill-opacity:1;stroke:none;stroke-width:3.20000005;stroke-linecap:round;stroke-linejoin:round;stroke-miterlimit:4;stroke-dasharray:none;stroke-dashoffset:0;stroke-opacity:1"
           id="rect4374"
           width="82.057732"
           y="146.33829"
           x="-66.399712"
           height="4.6666675" />
        <rect
           height="4.6666656"
           x="-66.399712"
           y="146.33829"
           width="82.046402"
           id="rect4376"
           style="opacity:0.5;fill:url(#linearGradient4406);fill-opacity:1;stroke:none;stroke-width:3.20000005;stroke-linecap:round;stroke-linejoin:round;stroke-miterlimit:4;stroke-dasharray:none;stroke-dashoffset:0;stroke-opacity:1" />
      </g>
    </g>
    <g
       inkscape:label="#g39195"
       transform="matrix(-1.682552e-2,0,0,-1,106.78795,154)"
       id="north-bottomleft"
       style="fill:#dadada;fill-opacity:0.39215686">
      <path
         id="path4380"
         d="M -190.90346,110 C -59.674233,110 46.830647,111.792 46.830647,114 L -190.90346,114 L -190.90346,110 z"
         style="opacity:0.81589954;fill:url(#linearGradient4408);fill-opacity:1;stroke:none;stroke-width:3.20000005;stroke-linecap:round;stroke-linejoin:round;stroke-miterlimit:4;stroke-dasharray:none;stroke-dashoffset:0;stroke-opacity:1" />
      <path
         style="opacity:1;fill:#dadada;fill-opacity:0.39215686;stroke:none;stroke-width:1.0629921;stroke-linecap:round;stroke-linejoin:round;stroke-miterlimit:4;stroke-dasharray:none;stroke-dashoffset:0;stroke-opacity:1"
         d="M 105.21227,114.00001 L 45.778738,114.00001 C 45.778738,111.79201 -60.726142,110.00001 -191.95537,110.00001 L -191.95537,109.00001 C -27.918835,109.00001 105.21227,111.24001 105.21227,114.00001 z"
         id="path4382" />
      <path
         id="path4384"
         d="M -190.90346,110 C -59.674233,110 46.830647,111.792 46.830647,114 L -190.90346,114 L -190.90346,110 z"
         style="opacity:0.5;fill:url(#linearGradient4410);fill-opacity:1;stroke:none;stroke-width:3.20000005;stroke-linecap:round;stroke-linejoin:round;stroke-miterlimit:4;stroke-dasharray:none;stroke-dashoffset:0;stroke-opacity:1" />
    </g>
    <g
       inkscape:label="#g39195"
       transform="matrix(0,-0.5050633,1,0,-3.9999989,63.138802)"
       id="north-left"
       style="fill:#dadada;fill-opacity:0.39215686">
      <g
         id="g4390"
         transform="matrix(0.7242291,0,0,-0.1142857,93.872171,130.59104)"
         inkscape:label="#g64272" />
      <rect
         height="1"
         x="45.778629"
         y="109"
         width="59.433529"
         id="rect4392"
         style="fill:#dadada;fill-opacity:0.39215686;stroke:none;stroke-width:3.20000005;stroke-linecap:round;stroke-linejoin:round;stroke-miterlimit:4;stroke-dasharray:none;stroke-dashoffset:0;stroke-opacity:1" />
      <g
         id="g4394"
         transform="matrix(0,4.9584216e-2,-1.6970996,0,351.58287,113.22417)"
         inkscape:label="#g64250">
        <rect
           style="opacity:0.81589954;fill:url(#linearGradient4412);fill-opacity:1;stroke:none;stroke-width:3.20000005;stroke-linecap:round;stroke-linejoin:round;stroke-miterlimit:4;stroke-dasharray:none;stroke-dashoffset:0;stroke-opacity:1"
           id="rect4396"
           width="82.057732"
           y="145.17163"
           x="-66.399712"
           height="35" />
        <rect
           height="17.499992"
           x="-66.399712"
           y="145.17163"
           width="82.046402"
           id="rect4398"
           style="opacity:0.5;fill:url(#linearGradient4414);fill-opacity:1;stroke:none;stroke-width:3.20000005;stroke-linecap:round;stroke-linejoin:round;stroke-miterlimit:4;stroke-dasharray:none;stroke-dashoffset:0;stroke-opacity:1" />
        <rect
           transform="scale(1,-1)"
           style="opacity:0.5;fill:url(#linearGradient4416);fill-opacity:1;stroke:none;stroke-width:3.20000005;stroke-linecap:round;stroke-linejoin:round;stroke-miterlimit:4;stroke-dasharray:none;stroke-dashoffset:0;stroke-opacity:1"
           id="rect4400"
           width="82.046402"
           y="-180.17163"
           x="-66.399712"
           height="17.500004" />
      </g>
    </g>
    <use
       x="0"
       y="0"
       xlink:href="#north-bottomleft"
       id="north-bottomright"
       transform="matrix(-1,0,0,1,300,0)"
       width="300"
       height="300"
       inkscape:label="#use4418" />
    <use
       x="0"
       y="0"
       xlink:href="#north-left"
       id="north-right"
       transform="matrix(-1,0,0,1,300.00056,1.0432018e-8)"
       width="300"
       height="300"
       inkscape:label="#use4420" />
  </g>
</svg>
